{
    "KPlugin": {
        "Category": "Accessibility",
        "Description": "Help you locate the center of the screen when moving a window",
        "Description[ar]": "يساعدك في معرفة مركز الشاشة عند تحريك نافذة ما",
        "Description[az]": "Pəncərələrin yeri dəyişdirilən zaman sizə ekranın mərkəzini təyin etməyə imkan verir",
        "Description[ca@valencia]": "Ajuda a ubicar el centre de la pantalla en moure una finestra",
        "Description[ca]": "Ajuda a ubicar el centre de la pantalla en moure una finestra",
        "Description[cs]": "Pomůže najít střed obrazovky při přesunu okna",
        "Description[de]": "Zeigt beim Verschieben von Fenstern eine Hilfestellung zum Auffinden der Bildschirmmitte an",
        "Description[en_GB]": "Help you locate the centre of the screen when moving a window",
        "Description[es]": "Le ayuda a localizar el centro de la pantalla cuando se mueve una ventana",
        "Description[fi]": "Auttaa havaitsemaan ikkunan keskikohdan ikkunaa siirrettäessä",
        "Description[fr]": "Vous aider à localiser le centre de l'écran lors du déplacement d'une fenêtre",
        "Description[hu]": "Segít megtalálni az asztal közepét ablak áthelyezésekor",
        "Description[ia]": "Adjuta localisar le centro del schermo quando tu move un fenestra",
        "Description[id]": "Membantu kamu menempatkan ke tengah layar ketika memindah window",
        "Description[it]": "Ti aiuta a trovare il centro dello schermo quando sposti una finestra",
        "Description[ko]": "창을 이동할 때 화면 중심을 잡아 줍니다",
        "Description[nl]": "Helpt u om het midden van het venster te bepalen bij het verplaatsen van het venster",
        "Description[nn]": "Hjelp til å finna midten av skjermen når du flyttar vindauge",
        "Description[pl]": "Pomaga znaleźć środek ekranu przy przesuwaniu okna",
        "Description[pt]": "Ajuda-o a localizar o centro do ecrã ao mover uma janela",
        "Description[pt_BR]": "Ajuda-o a localizar o centro da tela ao mover uma janela",
        "Description[ro]": "Ajută la găsirea centrului ecranului când se mută o fereastră",
        "Description[ru]": "Ассистент для поиска центра экрана при перемещении окна",
        "Description[sk]": "Pomôže nájsť stred obrazovky pri presúvaní okna",
        "Description[sl]": "Pomoč pri lokaciji središča zaslona ob premikanju okna",
        "Description[sv]": "Hjälper dig lokalisera bildskärmens mitt när ett fönster flyttas",
        "Description[ta]": "ஓர் சாளரத்தை நகர்த்தும்போது திரையின் நடுப்பகுதியை நீங்கள் கண்டுபிடிக்க உதவும்",
        "Description[tr]": "Bir pencereyi taşırken ekranın ortasını bulmanıza yardımcı olur",
        "Description[uk]": "Допомога у пошуку центра екрана, коли ви пересуватимете вікно",
        "Description[vi]": "Giúp bạn định vị tâm của màn hình khi di chuyển cửa sổ",
        "Description[x-test]": "xxHelp you locate the center of the screen when moving a windowxx",
        "Description[zh_CN]": "在移动窗口时显示窗口和桌面的中心位置辅助线，以便对齐两者",
        "EnabledByDefault": false,
        "Id": "snaphelper",
        "License": "GPL",
        "Name": "Snap Helper",
        "Name[ar]": "مساعد الجذب",
        "Name[az]": "Yerləşdirmə köməkçisi",
        "Name[ca@valencia]": "Ajudant de desplaçament",
        "Name[ca]": "Ajudant de desplaçament",
        "Name[cs]": "Pomůcka přichytávání",
        "Name[de]": "Einrasthilfe",
        "Name[en_GB]": "Snap Helper",
        "Name[es]": "Auxiliar de ajuste",
        "Name[fi]": "Kiinnistysavustaja",
        "Name[fr]": "Assistant pour Snap",
        "Name[hu]": "Középpontkereső",
        "Name[ia]": "Adjutante de photo",
        "Name[it]": "Centratore",
        "Name[ko]": "자석 효과",
        "Name[nl]": "Vastpinhulp",
        "Name[nn]": "Midthjelpar",
        "Name[pl]": "Pomocnik przeciągania",
        "Name[pt]": "Auxiliar de Ajuste",
        "Name[pt_BR]": "Assistente de ajuste",
        "Name[ro]": "Ajutător magnetic",
        "Name[ru]": "Разметка экрана",
        "Name[sk]": "Pomocník prichytenia",
        "Name[sl]": "Pomočnik posnetka zaslona",
        "Name[sv]": "Bindningshjälp",
        "Name[tr]": "Yapıştırma Yardımcısı",
        "Name[uk]": "Помічник розташування",
        "Name[vi]": "Trợ giúp nhanh",
        "Name[x-test]": "xxSnap Helperxx",
        "Name[zh_CN]": "窗口居中辅助线"
    },
    "org.kde.kwin.effect": {
        "video": "https://files.kde.org/plasma/kwin/effect-videos/snap_helper.mp4"
    }
}
